<svg width="148" height="16" viewBox="0 0 148 16" fill="none" xmlns="http://www.w3.org/2000/svg">
<path d="M147.707 8.70758C148.098 8.31706 148.098 7.68389 147.707 7.29337L141.343 0.929408C140.953 0.538884 140.319 0.538884 139.929 0.929408C139.538 1.31993 139.538 1.9531 139.929 2.34362L145.586 8.00048L139.929 13.6573C139.538 14.0479 139.538 14.681 139.929 15.0715C140.319 15.4621 140.953 15.4621 141.343 15.0715L147.707 8.70758ZM8.74228e-08 9.00049L147 9.00048L147 7.00048L-8.74228e-08 7.00049L8.74228e-08 9.00049Z" fill="white"/>
</svg>
